\select@language {ngerman}
\select@language {ngerman}
\contentsline {section}{\numberline {1}Einleitung}{2}{section.1}
\contentsline {section}{\numberline {2}Zielgruppe}{2}{section.2}
\contentsline {section}{\numberline {3}Programmbeschreibung}{2}{section.3}
\contentsline {subsection}{\numberline {3.1}Startbildschirm}{2}{subsection.3.1}
\contentsline {subsection}{\numberline {3.2}Hauptmenu}{2}{subsection.3.2}
\contentsline {subsection}{\numberline {3.3}Spiel Konfiguration}{3}{subsection.3.3}
\contentsline {subsection}{\numberline {3.4}KI-Gegner}{4}{subsection.3.4}
\contentsline {subsection}{\numberline {3.5}Spiel}{4}{subsection.3.5}
\contentsline {subsection}{\numberline {3.6}Spiel Menu}{6}{subsection.3.6}
\contentsline {subsection}{\numberline {3.7}Highscore Fenster}{6}{subsection.3.7}
\contentsline {section}{\numberline {4}Ergonomische Aspekte der GUI Benutzung}{13}{section.4}
