\relax 
\catcode`"\active
\providecommand\HyperFirstAtBeginDocument{\AtBeginDocument}
\HyperFirstAtBeginDocument{\ifx\hyper@anchor\@undefined
\global\let\oldcontentsline\contentsline
\gdef\contentsline#1#2#3#4{\oldcontentsline{#1}{#2}{#3}}
\global\let\oldnewlabel\newlabel
\gdef\newlabel#1#2{\newlabelxx{#1}#2}
\gdef\newlabelxx#1#2#3#4#5#6{\oldnewlabel{#1}{{#2}{#3}}}
\AtEndDocument{\ifx\hyper@anchor\@undefined
\let\contentsline\oldcontentsline
\let\newlabel\oldnewlabel
\fi}
\fi}
\global\let\hyper@last\relax 
\gdef\HyperFirstAtBeginDocument#1{#1}
\providecommand\HyField@AuxAddToFields[1]{}
\select@language{ngerman}
\@writefile{toc}{\select@language{ngerman}}
\@writefile{lof}{\select@language{ngerman}}
\@writefile{lot}{\select@language{ngerman}}
\select@language{ngerman}
\@writefile{toc}{\select@language{ngerman}}
\@writefile{lof}{\select@language{ngerman}}
\@writefile{lot}{\select@language{ngerman}}
\@writefile{toc}{\contentsline {section}{\numberline {1}Einleitung}{2}{section.1}}
\@writefile{toc}{\contentsline {section}{\numberline {2}Zielgruppe}{2}{section.2}}
\@writefile{toc}{\contentsline {section}{\numberline {3}Programmbeschreibung}{2}{section.3}}
\@writefile{toc}{\contentsline {subsection}{\numberline {3.1}Startbildschirm}{2}{subsection.3.1}}
\@writefile{lof}{\contentsline {figure}{\numberline {1}{\ignorespaces Startbildschirm}}{2}{figure.1}}
\newlabel{fig:splash}{{1}{2}{Startbildschirm\relax }{figure.1}{}}
\@writefile{toc}{\contentsline {subsection}{\numberline {3.2}Hauptmenu}{2}{subsection.3.2}}
\@writefile{lof}{\contentsline {figure}{\numberline {2}{\ignorespaces Hauptmenu}}{3}{figure.2}}
\newlabel{fig:mainMenu}{{2}{3}{Hauptmenu\relax }{figure.2}{}}
\@writefile{toc}{\contentsline {subsection}{\numberline {3.3}Spiel Konfiguration}{3}{subsection.3.3}}
\newlabel{gameconfig}{{3.3}{3}{Spiel Konfiguration\relax }{subsection.3.3}{}}
\@writefile{lof}{\contentsline {figure}{\numberline {3}{\ignorespaces Spiel Konfiguration}}{4}{figure.3}}
\newlabel{fig:config}{{3}{4}{Spiel Konfiguration\relax }{figure.3}{}}
\@writefile{toc}{\contentsline {subsection}{\numberline {3.4}KI-Gegner}{4}{subsection.3.4}}
\newlabel{kigegner}{{3.4}{4}{KI-Gegner\relax }{subsection.3.4}{}}
\@writefile{toc}{\contentsline {subsection}{\numberline {3.5}Spiel}{4}{subsection.3.5}}
\newlabel{game}{{3.5}{4}{Spiel\relax }{subsection.3.5}{}}
\@writefile{lof}{\contentsline {figure}{\numberline {4}{\ignorespaces Spiel Konfiguration im Netzwerk}}{5}{figure.4}}
\newlabel{fig:configNetwork}{{4}{5}{Spiel Konfiguration im Netzwerk\relax }{figure.4}{}}
\@writefile{toc}{\contentsline {subsection}{\numberline {3.6}Spiel Menu}{6}{subsection.3.6}}
\newlabel{gamemenu}{{3.6}{6}{Spiel Menu\relax }{subsection.3.6}{}}
\@writefile{toc}{\contentsline {subsection}{\numberline {3.7}Highscore Fenster}{6}{subsection.3.7}}
\newlabel{highscore}{{3.7}{6}{Highscore Fenster\relax }{subsection.3.7}{}}
\@writefile{lof}{\contentsline {figure}{\numberline {5}{\ignorespaces Standard Spiel}}{7}{figure.5}}
\newlabel{fig:standard}{{3.5}{7}{Spiel\relax }{figure.5}{}}
\@writefile{lof}{\contentsline {figure}{\numberline {6}{\ignorespaces BlokusDuo Spiel}}{7}{figure.6}}
\newlabel{fig:duo}{{3.5}{7}{Spiel\relax }{figure.6}{}}
\@writefile{lof}{\contentsline {figure}{\numberline {7}{\ignorespaces Solitair Spiel}}{8}{figure.7}}
\newlabel{fig:solitair}{{3.5}{8}{Spiel\relax }{figure.7}{}}
\@writefile{lof}{\contentsline {figure}{\numberline {8}{\ignorespaces Solitair Big Spiel}}{8}{figure.8}}
\newlabel{fig:solitairBig}{{3.5}{8}{Spiel\relax }{figure.8}{}}
\@writefile{lof}{\contentsline {figure}{\numberline {9}{\ignorespaces Custom Spiel}}{9}{figure.9}}
\newlabel{fig:custom}{{3.5}{9}{Spiel\relax }{figure.9}{}}
\@writefile{lof}{\contentsline {figure}{\numberline {10}{\ignorespaces Tipp angezeigt}}{9}{figure.10}}
\newlabel{fig:hintField}{{3.5}{9}{Spiel\relax }{figure.10}{}}
\@writefile{lof}{\contentsline {figure}{\numberline {11}{\ignorespaces zur\IeC {\"u}ck}}{10}{figure.11}}
\newlabel{fig:undo}{{3.5}{10}{Spiel\relax }{figure.11}{}}
\@writefile{lof}{\contentsline {figure}{\numberline {12}{\ignorespaces Tipp}}{11}{figure.12}}
\newlabel{fig:hint}{{3.5}{11}{Spiel\relax }{figure.12}{}}
\@writefile{lof}{\contentsline {figure}{\numberline {13}{\ignorespaces Spiel Men\IeC {\"u}}}{12}{figure.13}}
\newlabel{fig:screenGameMenu}{{13}{12}{Spiel Menü\relax }{figure.13}{}}
\@writefile{lof}{\contentsline {figure}{\numberline {14}{\ignorespaces Highscore Liste}}{12}{figure.14}}
\newlabel{fig:screenHighscore}{{14}{12}{Highscore Liste\relax }{figure.14}{}}
\@writefile{toc}{\contentsline {section}{\numberline {4}Ergonomische Aspekte der GUI Benutzung}{13}{section.4}}
